[gd_resource type="Resource" load_steps=3 format=2]

[ext_resource path="res://addons/pokemon_database_editor/tabs/pokemon_data_editor_tab/Resources/Icons/bulbasaur_icon.png" type="Texture" id=1]

[sub_resource type="GDScript" id=1]
script/source = "extends Resource
class_name PokemonDataGeneric

enum GrowthRate { 
	ERRATIC,
	FAST,
	MEDIUM_FAST,
	MEDIUM_SLOW,
	SLOW,
	FLUCTUATING 
}

enum EvYield {
	HP,
	ATTACK,
	DEFENCE,
	SP_ATK,
	SP_DEF,
	SPEED
}

enum egg_group {
	AMORPHOUS,
	BUG,
	DRAGON,
	FAIRY,
	FIELD,
	FLYING,
	GRASS,
	HUMAN_LIKE,
	MINERAL,
	MONSTER,
	WATER_1,
	WATER_2,
	WATER_3,
	DITTO,
	UNDISCOVERED
}

# General

export(String) var name: String
export(int) var id: int
export(String) var internal_name: String
export(float) var gender_ratio: float
export(GrowthRate) var growth_rate
export(int) var base_happiness: int
export(int) var catch_rate: int
export(int) var base_exp: int
export(EvYield) var ev_yield_type
export(int) var ev_yield_value

# Egg Data

export(egg_group) var egg_group_1
export(egg_group) var egg_group_2
export(int) var steps_to_hatch

# Typing

export(Types.TYPES) var type_primary
export(Types.TYPES) var type_secondary

# Pokedex

export(String) var category
export(int) var height_feet
export(int) var height_inches
export(int) var weight
export(String) var description
export(Texture) var footprint

# Base stats

export(int) var base_hp: int
export(int) var base_attack: int
export(int) var base_defence: int
export(int) var base_special_attack: int
export(int) var base_special_defence: int
export(int) var base_speed: int

# Abilities

var ability_1: Resource
var ability_2: Resource

# Moves

var level_up_learnset = {}

# Sprites

export(Texture) var sprites
export(SpriteFrames) var icon
export(SpriteFrames) var battle_sprites_front_male
export(SpriteFrames) var battle_sprites_back_male
export(SpriteFrames) var battle_sprites_front_female
export(SpriteFrames) var battle_sprites_back_female



func get_class():
	return \"PokemonDataGeneric\"


"

[resource]
script = SubResource( 1 )
name = "Bulbasaur"
id = 1
internal_name = "bulbasaur"
gender_ratio = 0.32
growth_rate = 0
base_happiness = 1.0
catch_rate = 1.0
base_exp = 0
ev_yield_type = 0
ev_yield_value = 0
egg_group_1 = 0
egg_group_2 = 0
steps_to_hatch = 0
type_primary = 4
type_secondary = 7
category = ""
height_feet = 0
height_inches = 0
weight = 0
description = ""
base_hp = 1.0
base_attack = 1.0
base_defence = 1.0
base_special_attack = 1.0
base_special_defence = 1.0
base_speed = 1.0
icon = ExtResource( 1 )
