# Created by MKDS Course Modifier
mtllib battlebg.mtl
g polygon0
usemtl batt_field23a_1
v 4.318604 0 0.02481043
v 4.318604 0 -0.5456311
v 4.216186 0 0.2850223
v 4.216186 0 -1.082529
v 4.047276 0 0.5368978
v 4.047276 0 -1.602357
v 3.814654 0 0.7766658
v 3.814455 0 -2.096978
v 3.521692 0 1.000158
v 3.521692 0 -2.55865
v 3.173155 0 1.204398
v 3.173155 0 -2.979832
v 2.774799 0 1.385613
v 2.774601 0 -3.353974
v 2.332379 0 1.541423
v 2.332379 0 -3.675318
v 1.853439 0 1.669047
v 1.853439 0 -3.938706
v 1.345122 0 1.766503
v 1.345122 0 -4.139968
vn 0 0.9980469 0.00390625
vn 0 0.9980469 0.00390625
vn 0 0.9980469 0.00390625
vn 0 0.9980469 0.00390625
vn 0 0.9980469 0.00390625
vn 0 0.9980469 0.00390625
vn 0 0.9980469 0.00390625
vn 0 0.9980469 0.00390625
vn 0 0.9980469 0.00390625
vn 0 0.9980469 0.00390625
vn 0 0.9980469 0.00390625
vn 0 0.9980469 0.00390625
vn 0 0.9980469 0.00390625
vn 0 0.9980469 0.00390625
vn 0 0.9980469 0.00390625
vn 0 0.9980469 0.00390625
vn 0 0.9980469 0.00390625
vn 0 0.9980469 0.00390625
vn 0 0.9980469 0.00390625
vn 0 0.9980469 0.00390625
vt -0.0078125 -0.5625
vt -0.0078125 -0.1503906
vt -0.01855469 -0.6240234
vt -0.01855469 -0.09960938
vt -0.03808594 -0.6835938
vt -0.03808594 -0.04980469
vt -0.06445313 -0.7402344
vt -0.06445313 0
vt -0.09765625 -0.7929688
vt -0.09765625 0
vt -0.1367188 -0.8408203
vt -0.1367188 0
vt -0.1816406 -0.8837891
vt -0.1816406 0
vt -0.2314453 -0.9208984
vt -0.2314453 0
vt -0.2851563 -0.9501953
vt -0.2851563 0
vt -0.3427734 -0.9736328
vt -0.3427734 0
f 1/1/1 2/2/2 3/3/3
f 2/2/2 4/4/4 3/3/3
f 3/3/3 4/4/4 5/5/5
f 4/4/4 6/6/6 5/5/5
f 5/5/5 6/6/6 7/7/7
f 6/6/6 8/8/8 7/7/7
f 7/7/7 8/8/8 9/9/9
f 8/8/8 10/10/10 9/9/9
f 9/9/9 10/10/10 11/11/11
f 10/10/10 12/12/12 11/11/11
f 11/11/11 12/12/12 13/13/13
f 12/12/12 14/14/14 13/13/13
f 13/13/13 14/14/14 15/15/15
f 14/14/14 16/16/16 15/15/15
f 15/15/15 16/16/16 17/17/17
f 16/16/16 18/18/18 17/17/17
f 17/17/17 18/18/18 19/19/19
f 18/18/18 20/20/20 19/19/19
v -4.318604 0 -0.5456311
v -4.318604 0 0.02481043
v -4.216186 0 -1.082529
v -4.216186 0 0.2850223
v -4.047276 0 -1.602357
v -4.047276 0 0.5368978
v -3.814455 0 -2.096978
v -3.814455 0 0.7766658
v -3.521692 0 -2.55865
v -3.521692 0 1.000158
v -3.173155 0 -2.979832
v -3.173155 0 1.204398
v -2.774799 0 -3.353974
v -2.774799 0 1.385613
v -2.332379 0 -3.675318
v -2.332379 0 1.541423
v -1.853439 0 -3.938706
v -1.853439 0 1.669047
v -1.345122 0 -4.139968
v -1.345122 0 1.766503
vn 0 0.9980469 0.00390625
vn 0 0.9980469 0.00390625
vn 0 0.9980469 0.00390625
vn 0 0.9980469 0.00390625
vn 0 0.9980469 0.00390625
vn 0 0.9980469 0.00390625
vn 0 0.9980469 0.00390625
vn 0 0.9980469 0.00390625
vn 0 0.9980469 0.00390625
vn 0 0.9980469 0.00390625
vn 0 0.9980469 0.00390625
vn 0 0.9980469 0.00390625
vn 0 0.9980469 0.00390625
vn 0 0.9980469 0.00390625
vn 0 0.9980469 0.00390625
vn 0 0.9980469 0.00390625
vn 0 0.9980469 0.00390625
vn 0 0.9980469 0.00390625
vn 0 0.9980469 0.00390625
vn 0 0.9980469 0.00390625
vt -0.9824219 -0.2001953
vt -0.9824219 -0.5625
vt -0.9707031 -0.1503906
vt -0.9707031 -0.6240234
vt -0.9511719 -0.09960938
vt -0.9511719 -0.6835938
vt -0.9248047 -0.04980469
vt -0.9248047 -0.7402344
vt -0.8925781 0
vt -0.8925781 -0.7929688
vt -0.8525391 0
vt -0.8525391 -0.8408203
vt -0.8076172 0
vt -0.8076172 -0.8837891
vt -0.7578125 0
vt -0.7578125 -0.9208984
vt -0.7041016 0
vt -0.7041016 -0.9501953
vt -0.6464844 0
vt -0.6464844 -0.9736328
f 21/21/21 22/22/22 23/23/23
f 22/22/22 24/24/24 23/23/23
f 23/23/23 24/24/24 25/25/25
f 24/24/24 26/26/26 25/25/25
f 25/25/25 26/26/26 27/27/27
f 26/26/26 28/28/28 27/27/27
f 27/27/27 28/28/28 29/29/29
f 28/28/28 30/30/30 29/29/29
f 29/29/29 30/30/30 31/31/31
f 30/30/30 32/32/32 31/31/31
f 31/31/31 32/32/32 33/33/33
f 32/32/32 34/34/34 33/33/33
f 33/33/33 34/34/34 35/35/35
f 34/34/34 36/36/36 35/35/35
f 35/35/35 36/36/36 37/37/37
f 36/36/36 38/38/38 37/37/37
f 37/37/37 38/38/38 39/39/39
f 38/38/38 40/40/40 39/39/39
v 1.345122 0 -4.139968
v 0.815767 0 -4.275929
v 0.815767 0 1.832399
v 1.345122 0 1.766503
v 0.815767 0 -4.275929
v 0.2733117 0 -4.344406
v 0.2733117 0 1.865546
v 0.815767 0 1.832399
v -0.815767 0 -4.275929
v -1.345122 0 -4.139968
v -1.345122 0 1.766503
v -0.815767 0 1.832399
v -0.2733117 0 -4.344406
v -0.815767 0 -4.275929
v -0.815767 0 1.832399
v -0.2733117 0 1.865546
v 0.2733117 0 -4.344406
v -0.2733117 0 -4.344406
v -0.2733117 0 1.865546
v 0.2733117 0 1.865546
vn 0 0.9980469 0.00390625
vn 0 0.9980469 0.00390625
vn 0 0.9980469 0.00390625
vn 0 0.9980469 0.00390625
vn 0 0.9980469 0.00390625
vn 0 0.9980469 0.00390625
vn 0 0.9980469 0.00390625
vn 0 0.9980469 0.00390625
vn 0 0.9980469 0.00390625
vn 0 0.9980469 0.00390625
vn 0 0.9980469 0.00390625
vn 0 0.9980469 0.00390625
vn 0 0.9980469 0.00390625
vn 0 0.9980469 0.00390625
vn 0 0.9980469 0.00390625
vn 0 0.9980469 0.00390625
vn 0 0.9980469 0.00390625
vn 0 0.9980469 0.00390625
vn 0 0.9980469 0.00390625
vn 0 0.9980469 0.00390625
vt 1 0
vt 0 0
vt 0 -1
vt 1 -0.984375
vt 1 0
vt 0.2998047 0
vt 0.2998047 -1
vt 1 -0.9921875
vt 0.7109375 0
vt 0 0
vt 0 -0.984375
vt 0.7109375 -1
vt 0.1943359 0
vt 0.6503906 0
vt 0.6503906 -0.9921875
vt 0.1943359 -1
vt 0.9121094 0
vt 0 0
vt 0 -1
vt 0.9121094 -1
f 41/41/41 42/42/42 43/43/43 44/44/44
f 45/45/45 46/46/46 47/47/47 48/48/48
f 49/49/49 50/50/50 51/51/51 52/52/52
f 53/53/53 54/54/54 55/55/55 56/56/56
f 57/57/57 58/58/58 59/59/59 60/60/60
v -4.318604 0 -0.5456311
v -4.352941 0 -0.2395695
v -4.318604 0 0.02481043
v 4.318604 0 0.02481043
v 4.352941 0 -0.2395695
v 4.318604 0 -0.5456311
vn 0 0.9980469 0.00390625
vn 0 0.9980469 0.00390625
vn 0 0.9980469 0.00390625
vn 0 0.9980469 0.00390625
vn 0 0.9980469 0.00390625
vn 0 0.9980469 0.00390625
vt -0.9824219 -0.2001953
vt -0.9863281 -0.3496094
vt -0.9824219 -0.5625
vt -0.0078125 -0.5625
vt -0.00390625 -0.2001953
vt -0.0078125 -0.1503906
f 61/61/61 62/62/62 63/63/63
f 64/64/64 65/65/65 66/66/66
g polygon1
usemtl batt_sky01_1
v 4.318604 0 0.02481043
v 4.318604 0.8769 0.02481043
v 4.352941 0 -0.2395695
v 4.352941 0.8769 -0.2395695
v 4.318604 0 -0.5456311
v 4.318604 0.8769 -0.5456311
v 4.216186 0 -1.082529
v 4.216186 0.8769 -1.082529
v 4.047276 0 -1.602357
v 4.047276 0.8769 -1.602357
v 3.814455 0 -2.096978
v 3.814455 0.8769 -2.096978
v 3.521692 0 -2.55865
v 3.521692 0.8769 -2.55865
v 3.173155 0 -2.979832
v 3.173155 0.8769 -2.979832
v 2.774601 0 -3.353974
v 2.774601 0.8769 -3.353974
v 2.332379 0 -3.675318
v 2.332379 0.8769 -3.675318
v 1.853439 0 -3.938706
v 1.853439 0.8769 -3.938706
v 1.345122 0 -4.139968
v 1.345122 0.8769 -4.139968
v 0.815767 0 -4.275929
v 0.815767 0.8769 -4.275929
v 0.2733117 0 -4.344406
v 0.2733117 0.8769 -4.344406
v -0.2733117 0 -4.344406
v -0.2733117 0.8769 -4.344406
v -0.815767 0 -4.275929
v -0.815767 0.8769 -4.275929
v -1.345122 0 -4.139968
v -1.345122 0.8769 -4.139968
v -1.853439 0 -3.938706
v -1.853439 0.8769 -3.938706
v -2.332379 0 -3.675318
v -2.332379 0.8769 -3.675318
v -2.774799 0 -3.353974
v -2.774799 0.8769 -3.353974
v -3.173155 0 -2.979832
v -3.173155 0.8769 -2.979832
v -3.521692 0 -2.55865
v -3.521692 0.8769 -2.55865
v -3.814455 0 -2.096978
v -3.814455 0.8769 -2.096978
v -4.047276 0 -1.602357
v -4.047276 0.8769 -1.602357
v -4.216186 0 -1.082529
v -4.216186 0.8769 -1.082529
v -4.318604 0 -0.5456311
v -4.318604 0.8769 -0.5456311
v -4.352941 0 -0.2395695
v -4.352941 0.8769 -0.2395695
v -4.318604 0 0.02481043
v -4.318604 0.8769 0.02481043
v -4.216186 0 0.2850223
v -4.216186 0.8769 0.2850223
vn 0 0.9980469 0.00390625
vn -0.96875 0 -0.25
vn 0 0.9980469 0.00390625
vn -1 0 -0.0078125
vn 0 0.9980469 0.00390625
vn -0.9882813 0 0.1503906
vn 0 0.9980469 0.00390625
vn -0.96875 0 0.2480469
vn 0 0.9980469 0.00390625
vn -0.9296875 0 0.3671875
vn 0 0.9980469 0.00390625
vn -0.8769531 0 0.4824219
vn 0 0.9980469 0.00390625
vn -0.8085938 0 0.5878906
vn 0 0.9980469 0.00390625
vn -0.7285156 0 0.6835938
vn 0 0.9980469 0.00390625
vn -0.6367188 0 0.7714844
vn 0 0.9980469 0.00390625
vn -0.5351563 0 0.84375
vn 0 0.9980469 0.00390625
vn -0.4257813 0 0.9042969
vn 0 0.9980469 0.00390625
vn -0.3085938 0 0.9511719
vn 0 0.9980469 0.00390625
vn -0.1875 0 0.9824219
vn 0 0.9980469 0.00390625
vn -0.0625 0 0.9980469
vn 0 0.9980469 0.00390625
vn 0.0625 0 0.9980469
vn 0 0.9980469 0.00390625
vn 0.1875 0 0.9824219
vn 0 0.9980469 0.00390625
vn 0.3085938 0 0.9511719
vn 0 0.9980469 0.00390625
vn 0.4257813 0 0.9042969
vn 0 0.9980469 0.00390625
vn 0.5351563 0 0.84375
vn 0 0.9980469 0.00390625
vn 0.6367188 0 0.7714844
vn 0 0.9980469 0.00390625
vn 0.7285156 0 0.6835938
vn 0 0.9980469 0.00390625
vn 0.8085938 0 0.5878906
vn 0 0.9980469 0.00390625
vn 0.8769531 0 0.4824219
vn 0 0.9980469 0.00390625
vn 0.9296875 0 0.3671875
vn 0 0.9980469 0.00390625
vn 0.96875 0 0.2480469
vn 0 0.9980469 0.00390625
vn 0.9882813 0 0.1503906
vn 0 0.9980469 0.00390625
vn 0.9980469 0 -0.0078125
vn 0 0.9980469 0.00390625
vn 0.96875 0 -0.25
vn 0 0.9980469 0.00390625
vn 0.9296875 0 -0.3671875
vt -0.2255859 -1.983398
vt -0.2255859 -1.231445
vt -0.2055664 -1.983398
vt -0.2055664 -1.231445
vt -0.1855469 -1.983398
vt -0.1855469 -1.231445
vt -0.1655273 -1.983398
vt -0.1655273 -1.231445
vt -0.1455078 -1.983398
vt -0.1455078 -1.231445
vt -0.1254883 -1.983398
vt -0.1254883 -1.231445
vt -0.1054688 -1.983398
vt -0.1054688 -1.231445
vt -0.08544922 -1.983398
vt -0.08544922 -1.231445
vt -0.06542969 -1.983398
vt -0.06542969 -1.231445
vt -0.04541016 -1.983398
vt -0.04541016 -1.231445
vt -0.02539063 -1.983398
vt -0.02539063 -1.231445
vt -0.005371094 -1.983398
vt -0.005371094 -1.231445
vt 0.01416016 -1.983398
vt 0.01416016 -1.231445
vt 0.03417969 -1.983398
vt 0.03417969 -1.231445
vt 0.05419922 -1.983398
vt 0.05419922 -1.231445
vt 0.07421875 -1.983398
vt 0.07421875 -1.231445
vt 0.09423828 -1.983398
vt 0.09423828 -1.231445
vt 0.1142578 -1.983398
vt 0.1142578 -1.231445
vt 0.1342773 -1.983398
vt 0.1342773 -1.231445
vt 0.1542969 -1.983398
vt 0.1542969 -1.231445
vt 0.1743164 -1.983398
vt 0.1743164 -1.231445
vt 0.1943359 -1.983398
vt 0.1943359 -1.231445
vt 0.2143555 -1.983398
vt 0.2143555 -1.231445
vt 0.234375 -1.983398
vt 0.234375 -1.231445
vt 0.2543945 -1.983398
vt 0.2543945 -1.231445
vt 0.2744141 -1.983398
vt 0.2744141 -1.231445
vt 0.2944336 -1.983398
vt 0.2944336 -1.231445
vt 0.3144531 -1.983398
vt 0.3144531 -1.231445
vt 0.3344727 -1.983398
vt 0.3344727 -1.231445
f 67/67/67 68/68/68 69/69/69
f 68/68/68 70/70/70 69/69/69
f 69/69/69 70/70/70 71/71/71
f 70/70/70 72/72/72 71/71/71
f 71/71/71 72/72/72 73/73/73
f 72/72/72 74/74/74 73/73/73
f 73/73/73 74/74/74 75/75/75
f 74/74/74 76/76/76 75/75/75
f 75/75/75 76/76/76 77/77/77
f 76/76/76 78/78/78 77/77/77
f 77/77/77 78/78/78 79/79/79
f 78/78/78 80/80/80 79/79/79
f 79/79/79 80/80/80 81/81/81
f 80/80/80 82/82/82 81/81/81
f 81/81/81 82/82/82 83/83/83
f 82/82/82 84/84/84 83/83/83
f 83/83/83 84/84/84 85/85/85
f 84/84/84 86/86/86 85/85/85
f 85/85/85 86/86/86 87/87/87
f 86/86/86 88/88/88 87/87/87
f 87/87/87 88/88/88 89/89/89
f 88/88/88 90/90/90 89/89/89
f 89/89/89 90/90/90 91/91/91
f 90/90/90 92/92/92 91/91/91
f 91/91/91 92/92/92 93/93/93
f 92/92/92 94/94/94 93/93/93
f 93/93/93 94/94/94 95/95/95
f 94/94/94 96/96/96 95/95/95
f 95/95/95 96/96/96 97/97/97
f 96/96/96 98/98/98 97/97/97
f 97/97/97 98/98/98 99/99/99
f 98/98/98 100/100/100 99/99/99
f 99/99/99 100/100/100 101/101/101
f 100/100/100 102/102/102 101/101/101
f 101/101/101 102/102/102 103/103/103
f 102/102/102 104/104/104 103/103/103
f 103/103/103 104/104/104 105/105/105
f 104/104/104 106/106/106 105/105/105
f 105/105/105 106/106/106 107/107/107
f 106/106/106 108/108/108 107/107/107
f 107/107/107 108/108/108 109/109/109
f 108/108/108 110/110/110 109/109/109
f 109/109/109 110/110/110 111/111/111
f 110/110/110 112/112/112 111/111/111
f 111/111/111 112/112/112 113/113/113
f 112/112/112 114/114/114 113/113/113
f 113/113/113 114/114/114 115/115/115
f 114/114/114 116/116/116 115/115/115
f 115/115/115 116/116/116 117/117/117
f 116/116/116 118/118/118 117/117/117
f 117/117/117 118/118/118 119/119/119
f 118/118/118 120/120/120 119/119/119
f 119/119/119 120/120/120 121/121/121
f 120/120/120 122/122/122 121/121/121
f 121/121/121 122/122/122 123/123/123
f 122/122/122 124/124/124 123/123/123
v 4.318604 0.8769 0.02481043
v 4.318604 1.787741 0.02481043
v 4.352941 0.8769 -0.2395695
v 4.352941 1.787741 -0.2395695
v 4.318604 0.8769 -0.5456311
v 4.318604 1.787741 -0.5456311
v 4.216186 0.8769 -1.082529
v 4.216186 1.787741 -1.082529
v 4.047276 0.8769 -1.602357
v 4.047276 1.787741 -1.602357
v 3.814455 0.8769 -2.096978
v 3.814455 1.787741 -2.096978
v 3.521692 0.8769 -2.55865
v 3.521692 1.787741 -2.55865
v 3.173155 0.8769 -2.979832
v 3.173155 1.787741 -2.979832
v 2.774601 0.8769 -3.353974
v 2.774601 1.787741 -3.353974
v 2.332379 0.8769 -3.675318
v 2.332379 1.787741 -3.675318
v 1.853439 0.8769 -3.938706
v 1.853439 1.787741 -3.938706
v 1.345122 0.8769 -4.139968
v 1.345122 1.787741 -4.139968
v 0.815767 0.8769 -4.275929
v 0.815767 1.787741 -4.275929
v 0.2733117 0.8769 -4.344406
v 0.2733117 1.787741 -4.344406
v -0.2733117 0.8769 -4.344406
v -0.2733117 1.787741 -4.344406
v -0.815767 0.8769 -4.275929
v -0.815767 1.787741 -4.275929
v -1.345122 0.8769 -4.139968
v -1.345122 1.787741 -4.139968
v -1.853439 0.8769 -3.938706
v -1.853439 1.787741 -3.938706
v -2.332379 0.8769 -3.675318
v -2.332379 1.787741 -3.675318
v -2.774799 0.8769 -3.353974
v -2.774799 1.787741 -3.353974
v -3.173155 0.8769 -2.979832
v -3.173155 1.787741 -2.979832
v -3.521692 0.8769 -2.55865
v -3.521692 1.787741 -2.55865
v -3.814455 0.8769 -2.096978
v -3.814455 1.787741 -2.096978
v -4.047276 0.8769 -1.602357
v -4.047276 1.787741 -1.602357
v -4.216186 0.8769 -1.082529
v -4.216186 1.787741 -1.082529
v -4.318604 0.8769 -0.5456311
v -4.318604 1.787741 -0.5456311
v -4.352941 0.8769 -0.2395695
v -4.352941 1.787741 -0.2395695
v -4.318604 0.8769 0.02481043
v -4.318604 1.787741 0.02481043
v -4.216186 0.8769 0.2850223
v -4.216186 1.787741 0.2850223
vn -0.96875 0 -0.25
vn -0.96875 0 -0.25
vn -1 0 -0.0078125
vn -1 0 -0.0078125
vn -0.9882813 0 0.1503906
vn -0.9882813 0 0.1503906
vn -0.96875 0 0.2480469
vn -0.96875 0 0.2480469
vn -0.9296875 0 0.3671875
vn -0.9296875 0 0.3671875
vn -0.8769531 0 0.4824219
vn -0.8769531 0 0.4824219
vn -0.8085938 0 0.5878906
vn -0.8085938 0 0.5878906
vn -0.7285156 0 0.6835938
vn -0.7285156 0 0.6835938
vn -0.6367188 0 0.7714844
vn -0.6367188 0 0.7714844
vn -0.5351563 0 0.84375
vn -0.5351563 0 0.84375
vn -0.4257813 0 0.9042969
vn -0.4257813 0 0.9042969
vn -0.3085938 0 0.9511719
vn -0.3085938 0 0.9511719
vn -0.1875 0 0.9824219
vn -0.1875 0 0.9824219
vn -0.0625 0 0.9980469
vn -0.0625 0 0.9980469
vn 0.0625 0 0.9980469
vn 0.0625 0 0.9980469
vn 0.1875 0 0.9824219
vn 0.1875 0 0.9824219
vn 0.3085938 0 0.9511719
vn 0.3085938 0 0.9511719
vn 0.4257813 0 0.9042969
vn 0.4257813 0 0.9042969
vn 0.5351563 0 0.84375
vn 0.5351563 0 0.84375
vn 0.6367188 0 0.7714844
vn 0.6367188 0 0.7714844
vn 0.7285156 0 0.6835938
vn 0.7285156 0 0.6835938
vn 0.8085938 0 0.5878906
vn 0.8085938 0 0.5878906
vn 0.8769531 0 0.4824219
vn 0.8769531 0 0.4824219
vn 0.9296875 0 0.3671875
vn 0.9296875 0 0.3671875
vn 0.96875 0 0.2480469
vn 0.96875 0 0.2480469
vn 0.9882813 0 0.1503906
vn 0.9882813 0 0.1503906
vn 0.9980469 0 -0.0078125
vn 0.9980469 0 -0.0078125
vn 0.96875 0 -0.25
vn 0.96875 0 -0.25
vn 0.9296875 0 -0.3671875
vn 0.9296875 0 -0.3671875
vt -0.2255859 -1.231445
vt -0.2255859 -1.125
vt -0.2055664 -1.231445
vt -0.2055664 -1.125
vt -0.1855469 -1.231445
vt -0.1855469 -1.125
vt -0.1655273 -1.231445
vt -0.1655273 -1.125
vt -0.1455078 -1.231445
vt -0.1455078 -1.125
vt -0.1254883 -1.231445
vt -0.1254883 -1.125
vt -0.1054688 -1.231445
vt -0.1054688 -1.125
vt -0.08544922 -1.231445
vt -0.08544922 -1.125
vt -0.06542969 -1.231445
vt -0.06542969 -1.125
vt -0.04541016 -1.231445
vt -0.04541016 -1.125
vt -0.02539063 -1.231445
vt -0.02539063 -1.125
vt -0.005371094 -1.231445
vt -0.005371094 -1.125
vt 0.01416016 -1.231445
vt 0.01416016 -1.125
vt 0.03417969 -1.231445
vt 0.03417969 -1.125
vt 0.05419922 -1.231445
vt 0.05419922 -1.125
vt 0.07421875 -1.231445
vt 0.07421875 -1.125
vt 0.09423828 -1.231445
vt 0.09423828 -1.125
vt 0.1142578 -1.231445
vt 0.1142578 -1.125
vt 0.1342773 -1.231445
vt 0.1342773 -1.125
vt 0.1542969 -1.231445
vt 0.1542969 -1.125
vt 0.1743164 -1.231445
vt 0.1743164 -1.125
vt 0.1943359 -1.231445
vt 0.1943359 -1.125
vt 0.2143555 -1.231445
vt 0.2143555 -1.125
vt 0.234375 -1.231445
vt 0.234375 -1.125
vt 0.2543945 -1.231445
vt 0.2543945 -1.125
vt 0.2744141 -1.231445
vt 0.2744141 -1.125
vt 0.2944336 -1.231445
vt 0.2944336 -1.125
vt 0.3144531 -1.231445
vt 0.3144531 -1.125
vt 0.3344727 -1.231445
vt 0.3344727 -1.125
f 125/125/125 126/126/126 127/127/127
f 126/126/126 128/128/128 127/127/127
f 127/127/127 128/128/128 129/129/129
f 128/128/128 130/130/130 129/129/129
f 129/129/129 130/130/130 131/131/131
f 130/130/130 132/132/132 131/131/131
f 131/131/131 132/132/132 133/133/133
f 132/132/132 134/134/134 133/133/133
f 133/133/133 134/134/134 135/135/135
f 134/134/134 136/136/136 135/135/135
f 135/135/135 136/136/136 137/137/137
f 136/136/136 138/138/138 137/137/137
f 137/137/137 138/138/138 139/139/139
f 138/138/138 140/140/140 139/139/139
f 139/139/139 140/140/140 141/141/141
f 140/140/140 142/142/142 141/141/141
f 141/141/141 142/142/142 143/143/143
f 142/142/142 144/144/144 143/143/143
f 143/143/143 144/144/144 145/145/145
f 144/144/144 146/146/146 145/145/145
f 145/145/145 146/146/146 147/147/147
f 146/146/146 148/148/148 147/147/147
f 147/147/147 148/148/148 149/149/149
f 148/148/148 150/150/150 149/149/149
f 149/149/149 150/150/150 151/151/151
f 150/150/150 152/152/152 151/151/151
f 151/151/151 152/152/152 153/153/153
f 152/152/152 154/154/154 153/153/153
f 153/153/153 154/154/154 155/155/155
f 154/154/154 156/156/156 155/155/155
f 155/155/155 156/156/156 157/157/157
f 156/156/156 158/158/158 157/157/157
f 157/157/157 158/158/158 159/159/159
f 158/158/158 160/160/160 159/159/159
f 159/159/159 160/160/160 161/161/161
f 160/160/160 162/162/162 161/161/161
f 161/161/161 162/162/162 163/163/163
f 162/162/162 164/164/164 163/163/163
f 163/163/163 164/164/164 165/165/165
f 164/164/164 166/166/166 165/165/165
f 165/165/165 166/166/166 167/167/167
f 166/166/166 168/168/168 167/167/167
f 167/167/167 168/168/168 169/169/169
f 168/168/168 170/170/170 169/169/169
f 169/169/169 170/170/170 171/171/171
f 170/170/170 172/172/172 171/171/171
f 171/171/171 172/172/172 173/173/173
f 172/172/172 174/174/174 173/173/173
f 173/173/173 174/174/174 175/175/175
f 174/174/174 176/176/176 175/175/175
f 175/175/175 176/176/176 177/177/177
f 176/176/176 178/178/178 177/177/177
f 177/177/177 178/178/178 179/179/179
f 178/178/178 180/180/180 179/179/179
f 179/179/179 180/180/180 181/181/181
f 180/180/180 182/182/182 181/181/181
v 4.318604 1.787741 0.02481043
v 4.318604 3.758086 0.02481043
v 4.352941 1.787741 -0.2395695
v 4.352941 3.758086 -0.2395695
v 4.318604 1.787741 -0.5456311
v 4.318604 3.758086 -0.5456311
v 4.216186 1.787741 -1.082529
v 4.216186 3.758086 -1.082529
v 4.047276 1.787741 -1.602357
v 4.047276 3.758086 -1.602357
v 3.814455 1.787741 -2.096978
v 3.814455 3.758086 -2.096978
v 3.521692 1.787741 -2.55865
v 3.521692 3.758086 -2.55865
v 3.173155 1.787741 -2.979832
v 3.173155 3.758086 -2.979832
v 2.774601 1.787741 -3.353974
v 2.774601 3.758086 -3.353974
v 2.332379 1.787741 -3.675318
v 2.332379 3.758086 -3.675318
v 1.853439 1.787741 -3.938706
v 1.853439 3.758086 -3.938706
v 1.345122 1.787741 -4.139968
v 1.345122 3.758086 -4.139968
v 0.815767 1.787741 -4.275929
v 0.815767 3.758086 -4.275929
v 0.2733117 1.787741 -4.344406
v 0.2733117 3.758086 -4.344406
v -0.2733117 1.787741 -4.344406
v -0.2733117 3.758086 -4.344406
v -0.815767 1.787741 -4.275929
v -0.815767 3.758086 -4.275929
v -1.345122 1.787741 -4.139968
v -1.345122 3.758086 -4.139968
v -1.853439 1.787741 -3.938706
v -1.853439 3.758086 -3.938706
v -2.332379 1.787741 -3.675318
v -2.332379 3.758086 -3.675318
v -2.774799 1.787741 -3.353974
v -2.774799 3.758086 -3.353974
v -3.173155 1.787741 -2.979832
v -3.173155 3.758086 -2.979832
v -3.521692 1.787741 -2.55865
v -3.521692 3.758086 -2.55865
v -3.814455 1.787741 -2.096978
v -3.814455 3.758086 -2.096978
v -4.047276 1.787741 -1.602357
v -4.047276 3.758086 -1.602357
v -4.216186 1.787741 -1.082529
v -4.216186 3.758086 -1.082529
v -4.318604 1.787741 -0.5456311
v -4.318604 3.758086 -0.5456311
v -4.352941 1.787741 -0.2395695
v -4.352941 3.758086 -0.2395695
v -4.318604 1.787741 0.02481043
v -4.318604 3.758086 0.02481043
v -4.216186 1.787741 0.2850223
v -4.216186 3.758086 0.2850223
vn -0.96875 0 -0.25
vn -0.96875 0 -0.25
vn -1 0 -0.0078125
vn -1 0 -0.0078125
vn -0.9882813 0 0.1503906
vn -0.9882813 0 0.1503906
vn -0.96875 0 0.2480469
vn -0.96875 0 0.2480469
vn -0.9296875 0 0.3671875
vn -0.9296875 0 0.3671875
vn -0.8769531 0 0.4824219
vn -0.8769531 0 0.4824219
vn -0.8085938 0 0.5878906
vn -0.8085938 0 0.5878906
vn -0.7285156 0 0.6835938
vn -0.7285156 0 0.6835938
vn -0.6367188 0 0.7714844
vn -0.6367188 0 0.7714844
vn -0.5351563 0 0.84375
vn -0.5351563 0 0.84375
vn -0.4257813 0 0.9042969
vn -0.4257813 0 0.9042969
vn -0.3085938 0 0.9511719
vn -0.3085938 0 0.9511719
vn -0.1875 0 0.9824219
vn -0.1875 0 0.9824219
vn -0.0625 0 0.9980469
vn -0.0625 0 0.9980469
vn 0.0625 0 0.9980469
vn 0.0625 0 0.9980469
vn 0.1875 0 0.9824219
vn 0.1875 0 0.9824219
vn 0.3085938 0 0.9511719
vn 0.3085938 0 0.9511719
vn 0.4257813 0 0.9042969
vn 0.4257813 0 0.9042969
vn 0.5351563 0 0.84375
vn 0.5351563 0 0.84375
vn 0.6367188 0 0.7714844
vn 0.6367188 0 0.7714844
vn 0.7285156 0 0.6835938
vn 0.7285156 0 0.6835938
vn 0.8085938 0 0.5878906
vn 0.8085938 0 0.5878906
vn 0.8769531 0 0.4824219
vn 0.8769531 0 0.4824219
vn 0.9296875 0 0.3671875
vn 0.9296875 0 0.3671875
vn 0.96875 0 0.2480469
vn 0.96875 0 0.2480469
vn 0.9882813 0 0.1503906
vn 0.9882813 0 0.1503906
vn 0.9980469 0 -0.0078125
vn 0.9980469 0 -0.0078125
vn 0.96875 0 -0.25
vn 0.96875 0 -0.25
vn 0.9296875 0 -0.3671875
vn 0.9296875 0 -0.3671875
vt -0.2255859 -1.125
vt -0.2255859 -1.019531
vt -0.2055664 -1.125
vt -0.2055664 -1.019531
vt -0.1855469 -1.125
vt -0.1855469 -1.019531
vt -0.1655273 -1.125
vt -0.1655273 -1.019531
vt -0.1455078 -1.125
vt -0.1455078 -1.019531
vt -0.1254883 -1.125
vt -0.1254883 -1.019531
vt -0.1054688 -1.125
vt -0.1054688 -1.019531
vt -0.08544922 -1.125
vt -0.08544922 -1.019531
vt -0.06542969 -1.125
vt -0.06542969 -1.019531
vt -0.04541016 -1.125
vt -0.04541016 -1.019531
vt -0.02539063 -1.125
vt -0.02539063 -1.019531
vt -0.005371094 -1.125
vt -0.005371094 -1.019531
vt 0.01416016 -1.125
vt 0.01416016 -1.019531
vt 0.03417969 -1.125
vt 0.03417969 -1.019531
vt 0.05419922 -1.125
vt 0.05419922 -1.019531
vt 0.07421875 -1.125
vt 0.07421875 -1.019531
vt 0.09423828 -1.125
vt 0.09423828 -1.019531
vt 0.1142578 -1.125
vt 0.1142578 -1.019531
vt 0.1342773 -1.125
vt 0.1342773 -1.019531
vt 0.1542969 -1.125
vt 0.1542969 -1.019531
vt 0.1743164 -1.125
vt 0.1743164 -1.019531
vt 0.1943359 -1.125
vt 0.1943359 -1.019531
vt 0.2143555 -1.125
vt 0.2143555 -1.019531
vt 0.234375 -1.125
vt 0.234375 -1.019531
vt 0.2543945 -1.125
vt 0.2543945 -1.019531
vt 0.2744141 -1.125
vt 0.2744141 -1.019531
vt 0.2944336 -1.125
vt 0.2944336 -1.019531
vt 0.3144531 -1.125
vt 0.3144531 -1.019531
vt 0.3344727 -1.125
vt 0.3344727 -1.019531
f 183/183/183 184/184/184 185/185/185
f 184/184/184 186/186/186 185/185/185
f 185/185/185 186/186/186 187/187/187
f 186/186/186 188/188/188 187/187/187
f 187/187/187 188/188/188 189/189/189
f 188/188/188 190/190/190 189/189/189
f 189/189/189 190/190/190 191/191/191
f 190/190/190 192/192/192 191/191/191
f 191/191/191 192/192/192 193/193/193
f 192/192/192 194/194/194 193/193/193
f 193/193/193 194/194/194 195/195/195
f 194/194/194 196/196/196 195/195/195
f 195/195/195 196/196/196 197/197/197
f 196/196/196 198/198/198 197/197/197
f 197/197/197 198/198/198 199/199/199
f 198/198/198 200/200/200 199/199/199
f 199/199/199 200/200/200 201/201/201
f 200/200/200 202/202/202 201/201/201
f 201/201/201 202/202/202 203/203/203
f 202/202/202 204/204/204 203/203/203
f 203/203/203 204/204/204 205/205/205
f 204/204/204 206/206/206 205/205/205
f 205/205/205 206/206/206 207/207/207
f 206/206/206 208/208/208 207/207/207
f 207/207/207 208/208/208 209/209/209
f 208/208/208 210/210/210 209/209/209
f 209/209/209 210/210/210 211/211/211
f 210/210/210 212/212/212 211/211/211
f 211/211/211 212/212/212 213/213/213
f 212/212/212 214/214/214 213/213/213
f 213/213/213 214/214/214 215/215/215
f 214/214/214 216/216/216 215/215/215
f 215/215/215 216/216/216 217/217/217
f 216/216/216 218/218/218 217/217/217
f 217/217/217 218/218/218 219/219/219
f 218/218/218 220/220/220 219/219/219
f 219/219/219 220/220/220 221/221/221
f 220/220/220 222/222/222 221/221/221
f 221/221/221 222/222/222 223/223/223
f 222/222/222 224/224/224 223/223/223
f 223/223/223 224/224/224 225/225/225
f 224/224/224 226/226/226 225/225/225
f 225/225/225 226/226/226 227/227/227
f 226/226/226 228/228/228 227/227/227
f 227/227/227 228/228/228 229/229/229
f 228/228/228 230/230/230 229/229/229
f 229/229/229 230/230/230 231/231/231
f 230/230/230 232/232/232 231/231/231
f 231/231/231 232/232/232 233/233/233
f 232/232/232 234/234/234 233/233/233
f 233/233/233 234/234/234 235/235/235
f 234/234/234 236/236/236 235/235/235
f 235/235/235 236/236/236 237/237/237
f 236/236/236 238/238/238 237/237/237
f 237/237/237 238/238/238 239/239/239
f 238/238/238 240/240/240 239/239/239
v 4.318604 0 0.02481043
v 4.216186 0 0.2850223
v 4.318604 0.8769 0.02481043
v 4.216186 0.8769 0.2850223
v 4.318604 1.787741 0.02481043
v 4.216186 1.787741 0.2850223
v 4.318604 3.758086 0.02481043
v 4.216186 3.758086 0.2850223
vn 0 0.9980469 0.00390625
vn 0 0.9980469 0.00390625
vn -0.96875 0 -0.25
vn -0.9296875 0 -0.3671875
vn -0.96875 0 -0.25
vn -0.9296875 0 -0.3671875
vn -0.96875 0 -0.25
vn -0.9296875 0 -0.3671875
vt 0.7744141 -1.983398
vt 0.7543945 -1.983398
vt 0.7744141 -1.231445
vt 0.7543945 -1.231445
vt 0.7744141 -1.125
vt 0.7543945 -1.125
vt 0.7744141 -1.019531
vt 0.7543945 -1.019531
f 241/241/241 242/242/242 243/243/243
f 242/242/242 244/244/244 243/243/243
f 243/243/243 244/244/244 245/245/245
f 244/244/244 246/246/246 245/245/245
f 245/245/245 246/246/246 247/247/247
f 246/246/246 248/248/248 247/247/247
