mtllib cliff01_tall_grass_5.mtl
o map
v 1.0 0.0 -0.0
v 1.0 0.0 -1.0
v 0.0 1.0 -1.0
v 0.0 1.0 -0.0
v 0.788929 0.099479 -0.0
v 0.788929 0.099479 -1.0
vt 0.0 0.212303
vt 1.0 0.212303
vt 1.0 0.975
vt 0.0 0.975
vt 0.0 0.025
vt 1.0 0.025
vt 1.0 0.214838
vt 0.0 0.214838
vn 0.1914 0.7997 0.569
vn 0.6019 0.7986 -0.0
vn 0.0659 0.9978 0.0
vn 0.4263 0.9046 -0.0
usemtl MountainGrassRock
s off
f 5/1/1 6/2/2 3/3/3 4/4/3
f 1/5/4 2/6/4 6/7/2 5/8/1
