mtllib cliff02_tall_grass_7.mtl
o map
v 1.0 0.099479 -0.788929
v 0.0 0.099479 -0.788929
v 0.0 1.0 -0.0
v 1.0 1.0 -0.0
v 1.0 0.0 -1.0
v 0.0 0.0 -1.0
v 0.21107101 0.099479 -1.0
v 0.21107101 0.099479 -0.0
v 1.0 1.0 -0.0
v 1.0 1.0 -1.0
v 0.0 0.0 -1.0
v 0.0 0.0 -0.0
vt 0.0 0.212303
vt 1.0 0.212303
vt 1.0 0.975
vt 0.0 0.975
vt 0.0 0.025
vt 1.0 0.025
vt 1.0 0.214838
vt 0.0 0.214838
vt 0.0 0.212303
vt 1.0 0.212303
vt 1.0 0.975
vt 0.0 0.975
vt 0.0 0.025
vt 1.0 0.025
vt 1.0 0.214838
vt 0.0 0.214838
vn 0.569 0.7998 -0.1914
vn 0.0 0.7986 -0.6019
vn 0.0 0.9978 -0.0659
vn 0.0 0.9046 -0.4263
vn -0.1914 0.7998 -0.569
vn -0.6019 0.7986 0.0
vn -0.0659 0.9978 -0.0
vn -0.4263 0.9046 0.0
usemtl MountainGrassRock
s off
f 1/1/1 2/2/2 3/3/3 4/4/3
f 5/5/4 6/6/4 2/7/2 1/8/1
f 7/9/5 8/10/6 9/11/7 10/12/7
f 11/13/8 12/14/8 8/15/6 7/16/5
