mtllib Mountain_low_bl_empty_3.mtl
o map
v 0.75 0.0 -0.25
v 0.0 1.0 -1.0
v 0.0 0.0 -0.0
v 1.0 0.0 -1.0
vt 0.5 0.025
vt 0.0 0.025
vt 1.0 0.025
vt 0.5 0.975
vn -0.0 1.0 0.0
vn -0.0 0.7071 0.7071
vn 0.4851 0.7276 0.4851
vn 0.7071 0.7071 -0.0
usemtl MountainGrassRock
s off
f 1/1/3 2/4/1 3/2/2
f 1/1/3 4/3/4 2/4/1
