mtllib Mountain_low_bl_13.mtl
o map
v 0.75 0.0 -0.75
v 0.0 1.0 -0.0
v 1.0 0.0 -0.0
v 0.0 0.0 -1.0
v 1.0 0.0 -1.0
v 0.0 0.0 -0.0
vt 0.0 0.0
vt 1.0 0.0
vt 1.0 1.0
vt 0.0 1.0
vt 0.5 0.025
vt 0.0 0.025
vt 1.0 0.025
vt 0.5 0.975
vn -0.0 1.0 0.0
vn 0.7071 0.7071 0.0
vn 0.4851 0.7276 -0.4851
vn -0.0 0.7071 -0.7071
usemtl cliff01
s off
f 5/1/1 4/2/1 6/3/1 3/4/1
usemtl MountainRockDirt
s off
f 1/5/3 2/8/1 3/6/2
f 1/5/3 4/7/4 2/8/1
