mtllib Mountain_low_c_10.mtl
o map
v 1.0 0.0 -1.0
v 0.0 0.0 -1.0
v 0.0 1.0 -0.0
v 1.0 1.0 -0.0
v 1.0 0.0 -0.0
v 0.0 1.0 -1.0
vt 0.0 0.025
vt 1.0 0.025
vt 1.0 0.975
vt 0.0 0.975
vn 0.0 1.0 0.0
vn -0.0 0.7071 -0.7071
vn 0.7071 0.7071 0.0
usemtl MountainRockDirt
s off
f 1/1/2 2/2/2 3/3/1 4/4/1
f 5/1/3 1/2/3 6/3/1 3/4/1
