mtllib path_pebble.mtl
o map
v 0.0 0.026472 -0.0
v 1.0 0.026472 -0.0
v 1.0 0.026472 -1.0
v 0.0 0.026472 -1.0
vt 0.8 0.75
vt 1.0 0.75
vt 1.0 1.0
vt 0.8 1.0
vn -0.0 1.0 -0.0
usemtl Decorations_1
s off
f 1/1/1 2/2/1 3/3/1 4/4/1
