mtllib sand_border_c_2.mtl
o map
v 0.0 0.0 -1.0
v 0.0 0.0 -0.0
v 1.0 0.0 -0.0
v 1.0 0.0 -1.0
vt 0.986328 -0.007812
vt 0.507812 -0.492188
vt 0.507812 -0.007812
vt 0.986328 -0.492188
vn 0.0 1.0 -0.0
usemtl road01_r
s off
f 1/1/1 2/3/1 3/2/1 4/4/1
