mtllib Sand_border_tr_6.mtl
o map
v 1.0 0.0 -0.0
v 1.0 0.0 -1.0
v 0.0 0.0 -1.0
v 0.0 0.0 -0.0
vt 0.505859 -0.505859
vt 0.986328 -0.505859
vt 0.505859 -0.992188
vt 0.986328 -0.992188
vn -0.0 1.0 0.0
usemtl road02_r
s off
f 1/2/1 2/1/1 3/3/1 4/4/1
