mtllib Sand_border_t_5.mtl
o map
v 0.0 0.0 -1.0
v 0.0 0.0 -0.0
v 1.0 -1.0E-6 -0.0
v 1.0 -1.0E-6 -1.0
vt 0.011719 1.0
vt 0.011719 0.5
vt 0.488281 1.0
vt 0.488281 0.5
vn 0.0 1.0 -0.0
usemtl road02_r
s off
f 3/3/1 4/1/1 1/2/1 2/4/1
