mtllib Stairs_2.mtl
o map
v 0.0 0.692382 -3.187499
v 0.0 1.124999 -3.187499
v 0.25 0.692382 -3.187499
v 0.25 1.124999 -3.187499
v 1.0 -0.067383 -3.187499
v 1.0 0.356444 -3.187499
v 0.0 1.124999 0.187501
v 0.0 0.692381 0.187501
v 0.25 1.124999 0.187501
v 0.25 0.692381 0.187501
v 1.0 0.356444 0.187501
v 1.0 -0.067384 0.187501
v 1.0 0.356444 -0.062499
v 0.25 1.124999 -0.062499
v 0.25 1.124999 0.187501
v 1.0 0.356444 0.187501
v 1.0 -1.0E-6 -0.062499
v 0.0 0.999999 -0.062499
v 0.25 1.124999 -0.062499
v 1.0 0.356444 -0.062499
v 1.0 -1.0E-6 -0.062499
v 1.0 -1.0E-6 -0.312499
v 0.0 0.999999 -0.312499
v 0.0 0.999999 -0.062499
v 0.0 0.999999 -2.687499
v 1.0 -1.0E-6 -2.687499
v 1.0 -1.0E-6 -2.937499
v 0.0 0.999999 -2.937499
v 0.0 0.999999 -0.312499
v 1.0 -1.0E-6 -0.312499
v 1.0 -1.0E-6 -2.687499
v 0.0 0.999999 -2.687499
v 0.25 1.124999 -3.187499
v 0.25 1.124999 -2.937499
v 1.0 0.356444 -2.937499
v 1.0 0.356444 -3.187499
v 0.0 0.999999 -2.937499
v 1.0 -1.0E-6 -2.937499
v 1.0 0.356444 -2.937499
v 0.25 1.124999 -2.937499
v 0.0 1.124999 -0.062499
v 0.0 0.999999 -0.062499
v 0.0 0.692381 0.187501
v 0.0 1.124999 0.187501
v 0.0 0.999999 -2.937499
v 0.0 1.124999 -2.937499
v 0.0 1.124999 -3.187499
v 0.0 0.692382 -3.187499
v 0.25 1.124999 0.187501
v 0.25 1.124999 -0.062499
v 0.0 1.124999 -0.062499
v 0.0 1.124999 0.187501
v 0.0 1.124999 -2.937499
v 0.25 1.124999 -2.937499
v 0.25 1.124999 -3.187499
v 0.0 1.124999 -3.187499
v 1.0 0.356444 -2.937499
v 1.0 -1.0E-6 -2.937499
v 1.0 -0.067383 -3.187499
v 1.0 0.356444 -3.187499
v 1.0 -1.0E-6 -0.062499
v 1.0 0.356444 -0.062499
v 1.0 0.356444 0.187501
v 1.0 -0.067384 0.187501
v 0.0 0.999999 -2.937499
v 0.25 1.124999 -2.937499
v 0.0 1.124999 -2.937499
v 0.25 1.124999 -0.062499
v 0.0 0.999999 -0.062499
v 0.0 1.124999 -0.062499
vt 0.109375 -0.939453
vt 0.109375 -0.925781
vt 0.101562 -0.939453
vt 0.101562 -0.925781
vt 0.080078 -0.964844
vt 0.080078 -0.951172
vt 0.048828 -0.925781
vt 0.048828 -0.939453
vt 0.056641 -0.925781
vt 0.056641 -0.939453
vt 0.078125 -0.951172
vt 0.078125 -0.964844
vt 0.222656 -0.839844
vt 0.222656 -0.796875
vt 0.144531 -0.796875
vt 0.144531 -0.839844
vt 0.193359 -0.960938
vt 0.224609 -0.927734
vt 0.216797 -0.923828
vt 0.193359 -0.949219
vt 0.289062 -0.75
vt 0.289062 -0.984375
vt 0.957031 -0.984375
vt 0.957031 -0.75
vt 0.957031 -0.984375
vt 0.289062 -0.984375
vt 0.289062 -0.75
vt 0.957031 -0.75
vt 0.0 -0.042969
vt 0.0 -0.710938
vt 0.625 -0.710938
vt 0.625 -0.042969
vt 0.224609 -0.800781
vt 0.146484 -0.800781
vt 0.146484 -0.84375
vt 0.224609 -0.84375
vt 0.162109 -0.927734
vt 0.193359 -0.960938
vt 0.193359 -0.949219
vt 0.169922 -0.923828
vt 0.166016 -0.923828
vt 0.166016 -0.919922
vt 0.158203 -0.908203
vt 0.158203 -0.923828
vt 0.150391 -0.923828
vt 0.150391 -0.927734
vt 0.158203 -0.927734
vt 0.158203 -0.914062
vt 0.03125 -0.832031
vt 0.109375 -0.832031
vt 0.109375 -0.791016
vt 0.03125 -0.791016
vt 0.033203 -0.791016
vt 0.033203 -0.832031
vt 0.109375 -0.832031
vt 0.109375 -0.791016
vt 0.033203 -0.943359
vt 0.033203 -0.960938
vt 0.042969 -0.964844
vt 0.042969 -0.943359
vt 0.033203 -0.960938
vt 0.033203 -0.943359
vt 0.023438 -0.943359
vt 0.023438 -0.964844
vt 0.162109 -0.927734
vt 0.169922 -0.923828
vt 0.162109 -0.923828
vt 0.216797 -0.923828
vt 0.224609 -0.927734
vt 0.224609 -0.923828
vn 0.0 0.0 -1.0
vn 0.0 -0.0 1.0
vn 0.7071 0.7071 0.0
vn -1.0 0.0 -0.0
vn 0.0 1.0 -0.0
vn 1.0 0.0 0.0
usemtl slope
s off
f 1/1/1 2/2/1 3/3/1
f 2/2/1 4/4/1 3/3/1
f 3/3/1 4/4/1 5/5/1
f 4/4/1 6/6/1 5/5/1
f 7/7/2 8/8/2 9/9/2
f 8/8/2 10/10/2 9/9/2
f 9/9/2 10/10/2 11/11/2
f 10/10/2 12/12/2 11/11/2
f 13/13/3 14/14/3 15/15/3
f 15/15/3 16/16/3 13/13/3
f 17/17/1 18/18/1 19/19/1
f 19/19/1 20/20/1 17/17/1
f 21/21/3 22/22/3 23/23/3
f 23/23/3 24/24/3 21/21/3
f 25/25/3 26/26/3 27/27/3
f 27/27/3 28/28/3 25/25/3
f 29/29/3 30/30/3 31/31/3
f 31/31/3 32/32/3 29/29/3
f 33/33/3 34/34/3 35/35/3
f 35/35/3 36/36/3 33/33/3
f 37/37/2 38/38/2 39/39/2
f 39/39/2 40/40/2 37/37/2
f 41/41/4 42/42/4 43/43/4
f 43/43/4 44/44/4 41/41/4
f 45/45/4 46/46/4 47/47/4
f 47/47/4 48/48/4 45/45/4
f 49/49/5 50/50/5 51/51/5
f 51/51/5 52/52/5 49/49/5
f 53/53/5 54/54/5 55/55/5
f 55/55/5 56/56/5 53/53/5
f 57/57/6 58/58/6 59/59/6
f 59/59/6 60/60/6 57/57/6
f 61/61/6 62/62/6 63/63/6
f 63/63/6 64/64/6 61/61/6
f 65/65/2 66/66/2 67/67/2
f 68/68/1 69/69/1 70/70/1
