mtllib Tall_grass_ct.mtl
o map
v 0.5 0.125 -1.0
v 0.0 0.125 -1.0
v 0.0 0.125 -0.5
v 0.5 0.125 -0.5
v 1.0 0.125001 -1.0
v 0.5 0.125001 -1.0
v 0.5 0.125001 -0.5
v 1.0 0.125001 -0.5
v 0.5 0.125 -0.0
v 1.0 0.125 -0.0
v 1.0 0.125 -0.5
v 0.5 0.125 -0.5
v 0.0 0.125 -0.0
v 0.5 0.125 -0.0
v 0.5 0.125 -0.5
v 0.0 0.125 -0.5
vt 0.5 -1.0
vt 1.0 -1.0
vt 1.0 -0.5
vt 0.5 -0.5
vt 0.0 -1.0
vt 0.5 -1.0
vt 0.5 -0.5
vt 0.0 -0.5
vt 0.5 1.0
vt 0.0 1.0
vt 0.0 0.5
vt 0.5 0.5
vt 1.0 1.0
vt 0.5 1.0
vt 0.5 0.5
vt 1.0 0.5
vn 0.0 1.0 -0.0
usemtl egrass_ri
s off
f 1/9/1 2/10/1 3/11/1 4/12/1
f 5/13/1 6/14/1 7/15/1 8/16/1
usemtl egrass_v
s off
f 13/1/1 14/2/1 15/3/1 16/4/1
f 9/5/1 10/6/1 11/7/1 12/8/1
