mtllib Tall_grass_tl.mtl
o map
v 1.0 0.125001 -0.5
v 0.5 0.125001 -0.5
v 0.5 0.125001 -0.0
v 1.0 0.125001 -0.0
vt 0.5 0.0
vt 0.0 0.0
vt 0.0 -0.5
vt 0.5 -0.5
vn 0.0 1.0 -0.0
usemtl egrass_ro
s off
f 1/1/1 2/2/1 3/3/1 4/4/1
