mtllib Tree_1.mtl
o map
v 2.0 0.02 -2.0
v 0.0 0.02 -2.0
v 0.0 0.02 -0.0
v 2.0 0.02 -0.0
v 3.0 3.083984 -2.922851
v -1.0 3.083984 -2.922851
v -1.0 0.0 -0.375
v 3.0 0.0 -0.375
vt 1.0 0.0
vt 0.0 0.0
vt 0.0 -1.0
vt 1.0 -1.0
vt 1.0 0.0
vt 0.0 0.0
vt 0.0 -1.0
vt 1.0 -1.0
vn 0.0 1.0 -0.0
vn 0.0 0.6364 0.7714
usemtl tree01_un
s off
f 1/1/1 2/2/1 3/3/1 4/4/1
usemtl tree02
s off
f 5/5/2 6/6/2 7/7/2 8/8/2
