[gd_resource type="StyleBoxFlat" format=2]

[resource]
bg_color = Color( 0.12549, 0.141176, 0.192157, 1 )
draw_center = false
border_width_left = 1
border_width_top = 1
border_width_right = 1
border_width_bottom = 1
